﻿
<picture uniq="unf-svg">
  <svg id="el_ElYo6FRnMnu" xmlns="http://www.w3.org/2000/svg" xmlns:xlink="http://www.w3.org/1999/xlink" viewBox="0 0 270 270" height="270" width="270">
    <style>@-webkit-keyframes el_C9sNWhJOkxc_Animation{25%{opacity: 0;}50%{opacity: 1;}75%{opacity: 0;}0%{opacity: 0;}100%{opacity: 0;}}@keyframes el_C9sNWhJOkxc_Animation{25%{opacity: 0;}50%{opacity: 1;}75%{opacity: 0;}0%{opacity: 0;}100%{opacity: 0;}}@-webkit-keyframes el_C9sNWhJOkxc__xDpBAulr_Animation{25%{-webkit-transform: translate(98.2790756225586px, 66.80609130859375px) scale(1, 1) translate(-98.2790756225586px, -66.80609130859375px);transform: translate(98.2790756225586px, 66.80609130859375px) scale(1, 1) translate(-98.2790756225586px, -66.80609130859375px);}50%{-webkit-transform: translate(98.2790756225586px, 66.80609130859375px) scale(5, 5) translate(-98.2790756225586px, -66.80609130859375px);transform: translate(98.2790756225586px, 66.80609130859375px) scale(5, 5) translate(-98.2790756225586px, -66.80609130859375px);}75%{-webkit-transform: translate(98.2790756225586px, 66.80609130859375px) scale(7, 7) translate(-98.2790756225586px, -66.80609130859375px);transform: translate(98.2790756225586px, 66.80609130859375px) scale(7, 7) translate(-98.2790756225586px, -66.80609130859375px);}0%{-webkit-transform: translate(98.2790756225586px, 66.80609130859375px) scale(1, 1) translate(-98.2790756225586px, -66.80609130859375px);transform: translate(98.2790756225586px, 66.80609130859375px) scale(1, 1) translate(-98.2790756225586px, -66.80609130859375px);}100%{-webkit-transform: translate(98.2790756225586px, 66.80609130859375px) scale(7, 7) translate(-98.2790756225586px, -66.80609130859375px);transform: translate(98.2790756225586px, 66.80609130859375px) scale(7, 7) translate(-98.2790756225586px, -66.80609130859375px);}}@keyframes el_C9sNWhJOkxc__xDpBAulr_Animation{25%{-webkit-transform: translate(98.2790756225586px, 66.80609130859375px) scale(1, 1) translate(-98.2790756225586px, -66.80609130859375px);transform: translate(98.2790756225586px, 66.80609130859375px) scale(1, 1) translate(-98.2790756225586px, -66.80609130859375px);}50%{-webkit-transform: translate(98.2790756225586px, 66.80609130859375px) scale(5, 5) translate(-98.2790756225586px, -66.80609130859375px);transform: translate(98.2790756225586px, 66.80609130859375px) scale(5, 5) translate(-98.2790756225586px, -66.80609130859375px);}75%{-webkit-transform: translate(98.2790756225586px, 66.80609130859375px) scale(7, 7) translate(-98.2790756225586px, -66.80609130859375px);transform: translate(98.2790756225586px, 66.80609130859375px) scale(7, 7) translate(-98.2790756225586px, -66.80609130859375px);}0%{-webkit-transform: translate(98.2790756225586px, 66.80609130859375px) scale(1, 1) translate(-98.2790756225586px, -66.80609130859375px);transform: translate(98.2790756225586px, 66.80609130859375px) scale(1, 1) translate(-98.2790756225586px, -66.80609130859375px);}100%{-webkit-transform: translate(98.2790756225586px, 66.80609130859375px) scale(7, 7) translate(-98.2790756225586px, -66.80609130859375px);transform: translate(98.2790756225586px, 66.80609130859375px) scale(7, 7) translate(-98.2790756225586px, -66.80609130859375px);}}@-webkit-keyframes el_C9sNWhJOkxc_Pz9Fl_S3v_Animation{25%{-webkit-transform: translate(98.2790756225586px, 66.80609130859375px) translate(-98.2790756225586px, -66.80609130859375px) translate(0px, 0px);transform: translate(98.2790756225586px, 66.80609130859375px) translate(-98.2790756225586px, -66.80609130859375px) translate(0px, 0px);}50%{-webkit-transform: translate(98.2790756225586px, 66.80609130859375px) translate(-98.2790756225586px, -66.80609130859375px) translate(0px, 0px);transform: translate(98.2790756225586px, 66.80609130859375px) translate(-98.2790756225586px, -66.80609130859375px) translate(0px, 0px);}75%{-webkit-transform: translate(98.2790756225586px, 66.80609130859375px) translate(-98.2790756225586px, -66.80609130859375px) translate(60px, -10px);transform: translate(98.2790756225586px, 66.80609130859375px) translate(-98.2790756225586px, -66.80609130859375px) translate(60px, -10px);}0%{-webkit-transform: translate(98.2790756225586px, 66.80609130859375px) translate(-98.2790756225586px, -66.80609130859375px) translate(0px, 0px);transform: translate(98.2790756225586px, 66.80609130859375px) translate(-98.2790756225586px, -66.80609130859375px) translate(0px, 0px);}100%{-webkit-transform: translate(98.2790756225586px, 66.80609130859375px) translate(-98.2790756225586px, -66.80609130859375px) translate(60px, -10px);transform: translate(98.2790756225586px, 66.80609130859375px) translate(-98.2790756225586px, -66.80609130859375px) translate(60px, -10px);}}@keyframes el_C9sNWhJOkxc_Pz9Fl_S3v_Animation{25%{-webkit-transform: translate(98.2790756225586px, 66.80609130859375px) translate(-98.2790756225586px, -66.80609130859375px) translate(0px, 0px);transform: translate(98.2790756225586px, 66.80609130859375px) translate(-98.2790756225586px, -66.80609130859375px) translate(0px, 0px);}50%{-webkit-transform: translate(98.2790756225586px, 66.80609130859375px) translate(-98.2790756225586px, -66.80609130859375px) translate(0px, 0px);transform: translate(98.2790756225586px, 66.80609130859375px) translate(-98.2790756225586px, -66.80609130859375px) translate(0px, 0px);}75%{-webkit-transform: translate(98.2790756225586px, 66.80609130859375px) translate(-98.2790756225586px, -66.80609130859375px) translate(60px, -10px);transform: translate(98.2790756225586px, 66.80609130859375px) translate(-98.2790756225586px, -66.80609130859375px) translate(60px, -10px);}0%{-webkit-transform: translate(98.2790756225586px, 66.80609130859375px) translate(-98.2790756225586px, -66.80609130859375px) translate(0px, 0px);transform: translate(98.2790756225586px, 66.80609130859375px) translate(-98.2790756225586px, -66.80609130859375px) translate(0px, 0px);}100%{-webkit-transform: translate(98.2790756225586px, 66.80609130859375px) translate(-98.2790756225586px, -66.80609130859375px) translate(60px, -10px);transform: translate(98.2790756225586px, 66.80609130859375px) translate(-98.2790756225586px, -66.80609130859375px) translate(60px, -10px);}}@-webkit-keyframes el_49n5FTAU__H_JDXP2RRHm_Animation{50%{-webkit-transform: translate(52.14232635498047px, 66.77333068847656px) scale(1.3, 1.3) translate(-52.14232635498047px, -66.77333068847656px);transform: translate(52.14232635498047px, 66.77333068847656px) scale(1.3, 1.3) translate(-52.14232635498047px, -66.77333068847656px);}65%{-webkit-transform: translate(52.14232635498047px, 66.77333068847656px) scale(0.1, 0.1) translate(-52.14232635498047px, -66.77333068847656px);transform: translate(52.14232635498047px, 66.77333068847656px) scale(0.1, 0.1) translate(-52.14232635498047px, -66.77333068847656px);}100%{-webkit-transform: translate(52.14232635498047px, 66.77333068847656px) scale(1, 1) translate(-52.14232635498047px, -66.77333068847656px);transform: translate(52.14232635498047px, 66.77333068847656px) scale(1, 1) translate(-52.14232635498047px, -66.77333068847656px);}0%{-webkit-transform: translate(52.14232635498047px, 66.77333068847656px) scale(1.3, 1.3) translate(-52.14232635498047px, -66.77333068847656px);transform: translate(52.14232635498047px, 66.77333068847656px) scale(1.3, 1.3) translate(-52.14232635498047px, -66.77333068847656px);}}@keyframes el_49n5FTAU__H_JDXP2RRHm_Animation{50%{-webkit-transform: translate(52.14232635498047px, 66.77333068847656px) scale(1.3, 1.3) translate(-52.14232635498047px, -66.77333068847656px);transform: translate(52.14232635498047px, 66.77333068847656px) scale(1.3, 1.3) translate(-52.14232635498047px, -66.77333068847656px);}65%{-webkit-transform: translate(52.14232635498047px, 66.77333068847656px) scale(0.1, 0.1) translate(-52.14232635498047px, -66.77333068847656px);transform: translate(52.14232635498047px, 66.77333068847656px) scale(0.1, 0.1) translate(-52.14232635498047px, -66.77333068847656px);}100%{-webkit-transform: translate(52.14232635498047px, 66.77333068847656px) scale(1, 1) translate(-52.14232635498047px, -66.77333068847656px);transform: translate(52.14232635498047px, 66.77333068847656px) scale(1, 1) translate(-52.14232635498047px, -66.77333068847656px);}0%{-webkit-transform: translate(52.14232635498047px, 66.77333068847656px) scale(1.3, 1.3) translate(-52.14232635498047px, -66.77333068847656px);transform: translate(52.14232635498047px, 66.77333068847656px) scale(1.3, 1.3) translate(-52.14232635498047px, -66.77333068847656px);}}@-webkit-keyframes el_49n5FTAU__H_Animation{0%{opacity: 1;}50%{opacity: 0;}65%{opacity: 0;}100%{opacity: 1;}}@keyframes el_49n5FTAU__H_Animation{0%{opacity: 1;}50%{opacity: 0;}65%{opacity: 0;}100%{opacity: 1;}}@-webkit-keyframes el_49n5FTAU__H_Q2t-8E5B-_Animation{0%{-webkit-transform: translate(52.14232635498047px, 66.77333068847656px) translate(-52.14232635498047px, -66.77333068847656px) translate(0px, 0px);transform: translate(52.14232635498047px, 66.77333068847656px) translate(-52.14232635498047px, -66.77333068847656px) translate(0px, 0px);}50%{-webkit-transform: translate(52.14232635498047px, 66.77333068847656px) translate(-52.14232635498047px, -66.77333068847656px) translate(40px, -20px);transform: translate(52.14232635498047px, 66.77333068847656px) translate(-52.14232635498047px, -66.77333068847656px) translate(40px, -20px);}65%{-webkit-transform: translate(52.14232635498047px, 66.77333068847656px) translate(-52.14232635498047px, -66.77333068847656px) translate(0px, 0px);transform: translate(52.14232635498047px, 66.77333068847656px) translate(-52.14232635498047px, -66.77333068847656px) translate(0px, 0px);}100%{-webkit-transform: translate(52.14232635498047px, 66.77333068847656px) translate(-52.14232635498047px, -66.77333068847656px) translate(0px, 0px);transform: translate(52.14232635498047px, 66.77333068847656px) translate(-52.14232635498047px, -66.77333068847656px) translate(0px, 0px);}}@keyframes el_49n5FTAU__H_Q2t-8E5B-_Animation{0%{-webkit-transform: translate(52.14232635498047px, 66.77333068847656px) translate(-52.14232635498047px, -66.77333068847656px) translate(0px, 0px);transform: translate(52.14232635498047px, 66.77333068847656px) translate(-52.14232635498047px, -66.77333068847656px) translate(0px, 0px);}50%{-webkit-transform: translate(52.14232635498047px, 66.77333068847656px) translate(-52.14232635498047px, -66.77333068847656px) translate(40px, -20px);transform: translate(52.14232635498047px, 66.77333068847656px) translate(-52.14232635498047px, -66.77333068847656px) translate(40px, -20px);}65%{-webkit-transform: translate(52.14232635498047px, 66.77333068847656px) translate(-52.14232635498047px, -66.77333068847656px) translate(0px, 0px);transform: translate(52.14232635498047px, 66.77333068847656px) translate(-52.14232635498047px, -66.77333068847656px) translate(0px, 0px);}100%{-webkit-transform: translate(52.14232635498047px, 66.77333068847656px) translate(-52.14232635498047px, -66.77333068847656px) translate(0px, 0px);transform: translate(52.14232635498047px, 66.77333068847656px) translate(-52.14232635498047px, -66.77333068847656px) translate(0px, 0px);}}@-webkit-keyframes el_3LuHbKose_v_Animation{0%{opacity: 1;}50%{opacity: 0;}65%{opacity: 0;}100%{opacity: 1;}}@keyframes el_3LuHbKose_v_Animation{0%{opacity: 1;}50%{opacity: 0;}65%{opacity: 0;}100%{opacity: 1;}}@-webkit-keyframes el_3LuHbKose_v_ntMi6HaEW_Animation{0%{-webkit-transform: translate(98.26229858398438px, 66.80000305175781px) scale(1, 1) translate(-98.26229858398438px, -66.80000305175781px);transform: translate(98.26229858398438px, 66.80000305175781px) scale(1, 1) translate(-98.26229858398438px, -66.80000305175781px);}50%{-webkit-transform: translate(98.26229858398438px, 66.80000305175781px) scale(1.4, 1.4) translate(-98.26229858398438px, -66.80000305175781px);transform: translate(98.26229858398438px, 66.80000305175781px) scale(1.4, 1.4) translate(-98.26229858398438px, -66.80000305175781px);}65%{-webkit-transform: translate(98.26229858398438px, 66.80000305175781px) scale(0.1, 0.1) translate(-98.26229858398438px, -66.80000305175781px);transform: translate(98.26229858398438px, 66.80000305175781px) scale(0.1, 0.1) translate(-98.26229858398438px, -66.80000305175781px);}100%{-webkit-transform: translate(98.26229858398438px, 66.80000305175781px) scale(1, 1) translate(-98.26229858398438px, -66.80000305175781px);transform: translate(98.26229858398438px, 66.80000305175781px) scale(1, 1) translate(-98.26229858398438px, -66.80000305175781px);}}@keyframes el_3LuHbKose_v_ntMi6HaEW_Animation{0%{-webkit-transform: translate(98.26229858398438px, 66.80000305175781px) scale(1, 1) translate(-98.26229858398438px, -66.80000305175781px);transform: translate(98.26229858398438px, 66.80000305175781px) scale(1, 1) translate(-98.26229858398438px, -66.80000305175781px);}50%{-webkit-transform: translate(98.26229858398438px, 66.80000305175781px) scale(1.4, 1.4) translate(-98.26229858398438px, -66.80000305175781px);transform: translate(98.26229858398438px, 66.80000305175781px) scale(1.4, 1.4) translate(-98.26229858398438px, -66.80000305175781px);}65%{-webkit-transform: translate(98.26229858398438px, 66.80000305175781px) scale(0.1, 0.1) translate(-98.26229858398438px, -66.80000305175781px);transform: translate(98.26229858398438px, 66.80000305175781px) scale(0.1, 0.1) translate(-98.26229858398438px, -66.80000305175781px);}100%{-webkit-transform: translate(98.26229858398438px, 66.80000305175781px) scale(1, 1) translate(-98.26229858398438px, -66.80000305175781px);transform: translate(98.26229858398438px, 66.80000305175781px) scale(1, 1) translate(-98.26229858398438px, -66.80000305175781px);}}@-webkit-keyframes el_3LuHbKose_v_oRK3hjBTC_Animation{0%{-webkit-transform: translate(98.26229858398438px, 66.80000305175781px) translate(-98.26229858398438px, -66.80000305175781px) translate(0px, 0px);transform: translate(98.26229858398438px, 66.80000305175781px) translate(-98.26229858398438px, -66.80000305175781px) translate(0px, 0px);}50%{-webkit-transform: translate(98.26229858398438px, 66.80000305175781px) translate(-98.26229858398438px, -66.80000305175781px) translate(60px, -20px);transform: translate(98.26229858398438px, 66.80000305175781px) translate(-98.26229858398438px, -66.80000305175781px) translate(60px, -20px);}65%{-webkit-transform: translate(98.26229858398438px, 66.80000305175781px) translate(-98.26229858398438px, -66.80000305175781px) translate(0px, 0px);transform: translate(98.26229858398438px, 66.80000305175781px) translate(-98.26229858398438px, -66.80000305175781px) translate(0px, 0px);}100%{-webkit-transform: translate(98.26229858398438px, 66.80000305175781px) translate(-98.26229858398438px, -66.80000305175781px) translate(0px, 0px);transform: translate(98.26229858398438px, 66.80000305175781px) translate(-98.26229858398438px, -66.80000305175781px) translate(0px, 0px);}}@keyframes el_3LuHbKose_v_oRK3hjBTC_Animation{0%{-webkit-transform: translate(98.26229858398438px, 66.80000305175781px) translate(-98.26229858398438px, -66.80000305175781px) translate(0px, 0px);transform: translate(98.26229858398438px, 66.80000305175781px) translate(-98.26229858398438px, -66.80000305175781px) translate(0px, 0px);}50%{-webkit-transform: translate(98.26229858398438px, 66.80000305175781px) translate(-98.26229858398438px, -66.80000305175781px) translate(60px, -20px);transform: translate(98.26229858398438px, 66.80000305175781px) translate(-98.26229858398438px, -66.80000305175781px) translate(60px, -20px);}65%{-webkit-transform: translate(98.26229858398438px, 66.80000305175781px) translate(-98.26229858398438px, -66.80000305175781px) translate(0px, 0px);transform: translate(98.26229858398438px, 66.80000305175781px) translate(-98.26229858398438px, -66.80000305175781px) translate(0px, 0px);}100%{-webkit-transform: translate(98.26229858398438px, 66.80000305175781px) translate(-98.26229858398438px, -66.80000305175781px) translate(0px, 0px);transform: translate(98.26229858398438px, 66.80000305175781px) translate(-98.26229858398438px, -66.80000305175781px) translate(0px, 0px);}}@-webkit-keyframes el_eRVKk6W9rNL_D_os-qLks_Animation{0%{-webkit-transform: translate(234.49002838134766px, 235.91498565673828px) rotate(0deg) translate(-234.49002838134766px, -235.91498565673828px);transform: translate(234.49002838134766px, 235.91498565673828px) rotate(0deg) translate(-234.49002838134766px, -235.91498565673828px);}100%{-webkit-transform: translate(234.49002838134766px, 235.91498565673828px) rotate(90deg) translate(-234.49002838134766px, -235.91498565673828px);transform: translate(234.49002838134766px, 235.91498565673828px) rotate(90deg) translate(-234.49002838134766px, -235.91498565673828px);}}@keyframes el_eRVKk6W9rNL_D_os-qLks_Animation{0%{-webkit-transform: translate(234.49002838134766px, 235.91498565673828px) rotate(0deg) translate(-234.49002838134766px, -235.91498565673828px);transform: translate(234.49002838134766px, 235.91498565673828px) rotate(0deg) translate(-234.49002838134766px, -235.91498565673828px);}100%{-webkit-transform: translate(234.49002838134766px, 235.91498565673828px) rotate(90deg) translate(-234.49002838134766px, -235.91498565673828px);transform: translate(234.49002838134766px, 235.91498565673828px) rotate(90deg) translate(-234.49002838134766px, -235.91498565673828px);}}#el_ElYo6FRnMnu *{-webkit-animation-duration: 2s;animation-duration: 2s;-webkit-animation-iteration-count: infinite;animation-iteration-count: infinite;-webkit-animation-play-state: running;animation-play-state: running;-webkit-animation-timing-function: cubic-bezier(0, 0, 1, 1);animation-timing-function: cubic-bezier(0, 0, 1, 1);}#el_dCT6MyDu4Vo{-webkit-clip-path: url(#clip-path);clip-path: url(#clip-path);}#el_phMJIp3zbhC{fill: #ffb81a;-webkit-transform: translate(-98.09px, 231.6px) rotate(-44.43deg);transform: translate(-98.09px, 231.6px) rotate(-44.43deg);}#el_Wd2NUwxcDwX{fill: #2f4050;}#el_kY0DmDA0HLM{fill: #314252;}#el_bYiaoBh83ej{fill: #314252;}#el_yFY5CpMGzKC{fill: #314252;}#el_DVQGIVAXFq-{fill: #314252;}#el_sdMzL5GJtcx{fill: #314252;}#el_Tti5v1kDBHM{fill: #314252;}#el_AwCJ4HX4FwA{fill: #314252;}#el_c5PWnMuez53{fill: #314252;}#el_vZgX3P1fUdY{fill: #314252;}#el_0160fdcRsY8{fill: #314252;}#el_3LuHbKose_v{fill: #feb82b;}#el_ElYo6FRnMnu:hover #el_3LuHbKose_v{-webkit-animation-name: el_3LuHbKose_v_Animation;animation-name: el_3LuHbKose_v_Animation;}#el_49n5FTAU__H{fill: #feb82b;}#el_ElYo6FRnMnu:hover #el_49n5FTAU__H{-webkit-animation-name: el_49n5FTAU__H_Animation;animation-name: el_49n5FTAU__H_Animation;}#el_Krcw4v4xtZ6{fill: #feb82b;opacity: 0;}#el_C9sNWhJOkxc{fill: #feb82b;opacity: 0;visibility: hidden;}#el_ElYo6FRnMnu:hover #el_C9sNWhJOkxc{-webkit-animation-name: el_C9sNWhJOkxc_Animation;animation-name: el_C9sNWhJOkxc_Animation;}#el_eMULwsCeSuW{fill: none;stroke: #2f4050;stroke-width: 16px;}#el_gYO71e595Md{fill: #314252;}#el_ElYo6FRnMnu:hover #el_eRVKk6W9rNL_D_os-qLks{-webkit-animation-name: el_eRVKk6W9rNL_D_os-qLks_Animation;animation-name: el_eRVKk6W9rNL_D_os-qLks_Animation;}#el_ElYo6FRnMnu:hover #el_3LuHbKose_v_oRK3hjBTC{-webkit-animation-name: el_3LuHbKose_v_oRK3hjBTC_Animation;animation-name: el_3LuHbKose_v_oRK3hjBTC_Animation;}#el_ElYo6FRnMnu:hover #el_3LuHbKose_v_ntMi6HaEW{-webkit-animation-name: el_3LuHbKose_v_ntMi6HaEW_Animation;animation-name: el_3LuHbKose_v_ntMi6HaEW_Animation;}#el_ElYo6FRnMnu:hover #el_49n5FTAU__H_Q2t-8E5B-{-webkit-animation-name: el_49n5FTAU__H_Q2t-8E5B-_Animation;animation-name: el_49n5FTAU__H_Q2t-8E5B-_Animation;}#el_ElYo6FRnMnu:hover #el_49n5FTAU__H_JDXP2RRHm{-webkit-animation-name: el_49n5FTAU__H_JDXP2RRHm_Animation;animation-name: el_49n5FTAU__H_JDXP2RRHm_Animation;}#el_ElYo6FRnMnu:hover #el_C9sNWhJOkxc_Pz9Fl_S3v{-webkit-animation-name: el_C9sNWhJOkxc_Pz9Fl_S3v_Animation;animation-name: el_C9sNWhJOkxc_Pz9Fl_S3v_Animation;}#el_ElYo6FRnMnu:hover #el_C9sNWhJOkxc__xDpBAulr{-webkit-animation-name: el_C9sNWhJOkxc__xDpBAulr_Animation;animation-name: el_C9sNWhJOkxc__xDpBAulr_Animation;}</style>
    <defs>
      <clipPath id="clip-path">
        <polygon class="cls-1" points="246.5 247.23 53.06 247.23 55.06 45.73 246.5 45.73 246.5 247.23"></polygon>
      </clipPath>
    </defs>
    <g id="el_Fe7l3BoyUme">
      <g id="el_dCT6MyDu4Vo">
        <g id="el_eRVKk6W9rNL_D_os-qLks" data-animator-group="true" data-animator-type="1">
          <g id="el_eRVKk6W9rNL">
            <circle cx="234.49" cy="235.89" r="7.39" id="el_phMJIp3zbhC"></circle>
            <path d="M330,139a10.75,10.75,0,0,0-14.88,3.14l-13.85,21.3a5,5,0,0,1-.68.82l-.36.36a4.87,4.87,0,0,1-6.52.26A91.9,91.9,0,0,0,244.65,144a4.87,4.87,0,0,1-4.33-4.87v-.51a5.32,5.32,0,0,1,.13-1.07l5.75-24.72a10.75,10.75,0,1,0-21-.21l5.26,24.84a4.53,4.53,0,0,1,.1,1.06V139a4.86,4.86,0,0,1-4.44,4.8,91.89,91.89,0,0,0-49.47,19.91,4.87,4.87,0,0,1-6.52-.39l-.34-.35a4.93,4.93,0,0,1-.64-.82l-13.44-21.58a10.71,10.71,0,0,0-7.85-5,11.1,11.1,0,0,0-12,11.74,10.71,10.71,0,0,0,4.84,7.95L162,169.1a4.79,4.79,0,0,1,.82.67l.34.35a4.87,4.87,0,0,1,.28,6.54,91.88,91.88,0,0,0-20.88,49,4.87,4.87,0,0,1-4.89,4.34h-.51a4.44,4.44,0,0,1-1.05-.12l-24.73-5.75a10.75,10.75,0,1,0-.21,21l24.83-5.26a5.25,5.25,0,0,1,1.07-.11h.51a4.87,4.87,0,0,1,4.79,4.43A91.91,91.91,0,0,0,162.3,293.7a4.87,4.87,0,0,1-.39,6.52l-.35.34a5,5,0,0,1-.81.64l-21.59,13.44a10.75,10.75,0,1,0,14.69,15l13.85-21.3a5,5,0,0,1,.68-.82l.35-.34a4.86,4.86,0,0,1,6.54-.28,91.9,91.9,0,0,0,49.06,20.9,4.87,4.87,0,0,1,4.33,4.87v.51a5.25,5.25,0,0,1-.13,1.07L222.77,359a10.75,10.75,0,1,0,21,.21l-5.26-24.84a4.69,4.69,0,0,1-.1-1.06v-.5a4.87,4.87,0,0,1,4.44-4.8,91.87,91.87,0,0,0,49.47-19.91,4.87,4.87,0,0,1,6.52.39l.34.35a4.78,4.78,0,0,1,.66.84l13.43,21.57a10.71,10.71,0,0,0,7.85,5,11.1,11.1,0,0,0,12-11.74,10.71,10.71,0,0,0-4.84-7.95l-21.3-13.85a4.87,4.87,0,0,1-.82-.67l-.36-.36a4.87,4.87,0,0,1-.26-6.53,91.91,91.91,0,0,0,20.89-49.05,4.86,4.86,0,0,1,4.88-4.34h.51a4.45,4.45,0,0,1,1.05.12l24.73,5.75a10.75,10.75,0,1,0,.21-21l-24.84,5.26a5.32,5.32,0,0,1-1.07.11h-.51a4.87,4.87,0,0,1-4.79-4.43,91.89,91.89,0,0,0-19.9-49.47,4.87,4.87,0,0,1,.39-6.52l.35-.34a5,5,0,0,1,.83-.66l21.57-13.43A10.74,10.74,0,0,0,330,139Zm-88.2,16.1a4.87,4.87,0,0,1,3.84-1.13,82.39,82.39,0,0,1,40.19,17.1,4.75,4.75,0,0,1,.45.4,4.87,4.87,0,0,1-.06,6.88l-35.52,34.82a4.87,4.87,0,0,1-5.55.89,24.35,24.35,0,0,0-2.35-1,4.88,4.88,0,0,1-3.17-4.63l.5-49.7A4.83,4.83,0,0,1,241.79,155.1Zm-57.89,22.24a4.88,4.88,0,0,1-1.38-3.76,5,5,0,0,1,1.9-3.52A82.47,82.47,0,0,1,225,153.75a4.8,4.8,0,0,1,.63,0,4.87,4.87,0,0,1,4.8,4.93l-.49,49.69a4.85,4.85,0,0,1-1.46,3.43,4.78,4.78,0,0,1-1.83,1.11,24.44,24.44,0,0,0-2.37,1,4.87,4.87,0,0,1-5.54-1Zm-31.35,47.39a82.45,82.45,0,0,1,17.11-40.19,4.93,4.93,0,0,1,3.56-1.83,4.87,4.87,0,0,1,3.73,1.46l34.79,35.49a4.86,4.86,0,0,1,.9,5.55,24.43,24.43,0,0,0-1,2.35,4.81,4.81,0,0,1-1.15,1.81,4.88,4.88,0,0,1-3.46,1.4l-49.69-.5a5.12,5.12,0,0,1-.63,0A4.87,4.87,0,0,1,152.56,224.73ZM168.63,286a82.43,82.43,0,0,1-16.3-40.52,5,5,0,0,1,0-.63,4.87,4.87,0,0,1,4.93-4.81l49.68.49a4.87,4.87,0,0,1,4.57,3.27,25.11,25.11,0,0,0,1,2.37,4.87,4.87,0,0,1-1,5.53l-35.49,34.8a5,5,0,0,1-.48.42A4.87,4.87,0,0,1,168.63,286Zm58.75,30.49-.22.21a4.87,4.87,0,0,1-3.84,1.14,82.43,82.43,0,0,1-40.19-17.1,4.86,4.86,0,0,1-.38-7.29l35.49-34.8a4.87,4.87,0,0,1,5.55-.9,24.53,24.53,0,0,0,2.35,1,4.87,4.87,0,0,1,3.2,4.61L228.84,313A4.86,4.86,0,0,1,227.39,316.45Zm57.7-22a4.87,4.87,0,0,1-.07,6.88c-.14.14-.31.26-.45.4A82.45,82.45,0,0,1,244,318a4.55,4.55,0,0,1-.63,0,4.87,4.87,0,0,1-4.81-4.93l.49-49.69a4.87,4.87,0,0,1,3.27-4.57,24.4,24.4,0,0,0,2.37-1,4.86,4.86,0,0,1,5.53,1Zm-40.38-48.14a14.6,14.6,0,1,1,.2-20.65A14.6,14.6,0,0,1,244.71,246.31Zm71.68.7a82.45,82.45,0,0,1-17.11,40.19,3.68,3.68,0,0,1-.41.45,4.87,4.87,0,0,1-6.88-.07l-34.79-35.49a4.87,4.87,0,0,1-.9-5.55,24.45,24.45,0,0,0,1-2.35,4.86,4.86,0,0,1,4.63-3.18l49.66.47a5.06,5.06,0,0,1,.63,0A4.87,4.87,0,0,1,316.38,247Zm-16.05-61.19a82.41,82.41,0,0,1,16.3,40.52,4.87,4.87,0,0,1-1.21,3.81l-.22.21a4.87,4.87,0,0,1-3.46,1.39l-49.68-.49a4.87,4.87,0,0,1-4.57-3.27,24.67,24.67,0,0,0-1-2.37,4.87,4.87,0,0,1,1-5.53L293,185.31a4.87,4.87,0,0,1,7.3.52Z" id="el_Wd2NUwxcDwX"></path>
          </g>
        </g>
      </g>
      <path d="M57.48,143c0,5.92,0,11.85,0,17.77,0,1.22-.27,1.63-1.56,1.63q-17.43-.07-34.87,0c-1.24,0-1.62-.31-1.6-1.59.08-4.86.06-9.72,0-14.58a1.93,1.93,0,0,1,1.16-2Q38.32,134.38,56,124.38c1.22-.69,1.57-.61,1.55.89C57.44,131.19,57.48,137.11,57.48,143Z" id="el_kY0DmDA0HLM"></path>
      <path d="M82.06,159.67c5.76,0,17.24,0,23,0,1.15,0,1.68.16,1.66,1.52-.07,7.16-.06,14.31,0,21.47,0,1.19-.36,1.52-1.52,1.49-2.68-.08-11.09-.09-13.77,0-1.17,0-1.4-.4-1.38-1.45.06-3,0-5.93,0-8.89,0-2.3-1-3.22-3.3-3.23q-4.86,0-9.73,0c-2.18,0-3.19,1-3.22,3.16,0,3,0,6,0,9.06,0,1-.29,1.36-1.32,1.34-2.79-.06-5.59-.05-8.39,0-.89,0-1.15-.28-1.14-1.15,0-7.38,0-14.76,0-22.14,0-1.24.66-1.16,1.49-1.16Z" id="el_bYiaoBh83ej"></path>
      <path d="M50.39,121c.3-8.57.6-17.05.87-25.54,0-.81.34-1,1.11-1,5.25,0,10.5,0,15.75,0,1.12,0,1.08.61,1.11,1.39q.48,14.57,1,29.14c.09,2.68.14,5.36.3,8a1.89,1.89,0,0,1-1.15,2.11c-1.74.88-3.44,1.86-5.11,2.88-1.1.67-1.29.3-1.28-.8,0-5.7,0-11.4,0-17.09,0-3.64-1.87-4.73-5-3l-7,3.89C50.83,121.08,50.71,121,50.39,121Z" id="el_yFY5CpMGzKC"></path>
      <path d="M38.4,184.1c-5.76,0-11.52,0-17.28,0-1.2,0-1.66-.22-1.63-1.55.09-4.47.06-8.95,0-13.42,0-1,.28-1.34,1.32-1.34q17.7,0,35.4,0c.91,0,1.28.21,1.27,1.21,0,4.64-.06,9.28,0,13.93,0,1.25-.66,1.15-1.48,1.15ZM27.68,173.27c-2.75,0-2.75,0-2.75,2.18,0,3.24,0,3.24,2,3.24,3.41,0,3.41,0,3.41-2.18C30.37,173.27,30.37,173.27,27.68,173.27Zm8.15,2.55c0,2.87,0,2.87,2.73,2.87s2.65,0,2.65-2.63c0-2.79,0-2.79-2.82-2.79C35.83,173.27,35.83,173.27,35.83,175.82Zm16.26.2c0-2.75,0-2.75-2-2.75-3.42,0-3.42,0-3.42,2.18,0,3.25,0,3.25,2.18,3.25C52.09,178.7,52.09,178.7,52.09,176Z" id="el_DVQGIVAXFq-"></path>
      <path d="M60.21,78.2c-2.4,0-4.8,0-7.2,0-.84,0-1.15-.22-1.16-1.13-.08-4.36-.11-4.36,4.24-4.36,3.68,0,7.36,0,11,0,1,0,1.36.21,1.41,1.28.2,4.22.24,4.22-4,4.22Z" id="el_sdMzL5GJtcx"></path>
      <path d="M60.2,89.08c-2.46,0-4.91-.06-7.37,0-1.15,0-1.38-.36-1.35-1.43.12-4,.09-4,4.07-4s7.81,0,11.72,0c1.08,0,1.57.18,1.61,1.42.13,4,.18,4-3.83,4Z" id="el_Tti5v1kDBHM"></path>
      <path d="M98.2,121c.3-8.57.6-17.05.87-25.54,0-.81.34-1,1.11-1,5.25,0,10.5,0,15.75,0,1.12,0,1.08.61,1.11,1.39q.48,14.57,1,29.14c.09,2.68.14,55.32.3,58,.06,1-7.54,1.11-7.53,0,0-5.7,0-57.18,0-62.88,0-3.64-1.87-4.73-5-3l-7,3.89C98.64,121.08,98.52,121,98.2,121Z" id="el_AwCJ4HX4FwA"></path>
      <path d="M108,78.2c-2.4,0-4.8,0-7.2,0-.84,0-1.15-.22-1.16-1.13-.08-4.36-.11-4.36,4.24-4.36,3.68,0,7.36,0,11,0,1,0,1.36.21,1.41,1.28.2,4.22.24,4.22-4,4.22Z" id="el_c5PWnMuez53"></path>
      <path d="M108,89.08c-2.46,0-4.91-.06-7.37,0-1.15,0-1.38-.36-1.35-1.43.12-4,.09-4,4.07-4s7.81,0,11.72,0c1.08,0,1.57.18,1.61,1.42.13,4,.18,4-3.83,4Z" id="el_vZgX3P1fUdY"></path>
      <path d="M79.19,180.14c0-.06,0-.11,0-.17,0-4.42,0-4.4,4.46-4,.7.06,1,.26,1,1,0,2.06,0,4.13,0,6.19,0,1.38-1,1.11-1.61.94-1.27-.37-3.1,1.16-3.78-.93A10.06,10.06,0,0,1,79.19,180.14Z" id="el_0160fdcRsY8"></path>
      <g id="el_3LuHbKose_v_oRK3hjBTC" data-animator-group="true" data-animator-type="0">
        <g id="el_3LuHbKose_v_ntMi6HaEW" data-animator-group="true" data-animator-type="2">
          <path id="el_3LuHbKose_v" d="M110,66.77c-3.41,0-6.82,0-10.22,0-1.18,0-1.58-.36-1.51-1.53.08-1.39,0-2.79,0-4.19a8,8,0,0,1,7.85-7.82c2.57-.07,5.14,0,7.71,0,2.31,0,3.18-.84,3.42-3.19.46-4.56,3.6-7.61,8.2-7.68,6.76-.1,13.52,0,20.28,0,1,0,1.4.35,1.35,1.36-.06,1.34,0,2.68,0,4a8.14,8.14,0,0,1-8.35,8.23c-2.46,0-4.92,0-7.38,0-2.15,0-3,.82-3.27,3-.63,5.15-3.67,7.84-8.87,7.85Z"></path>
        </g>
      </g>
      <g id="el_49n5FTAU__H_Q2t-8E5B-" data-animator-group="true" data-animator-type="0">
        <g id="el_49n5FTAU__H_JDXP2RRHm" data-animator-group="true" data-animator-type="2">
          <path id="el_49n5FTAU__H" d="M59.83,66.77c-2.12,0-4.24,0-6.37,0-.92,0-1.25-.26-1.3-1.22-.27-5.53,2.56-9,8-9.61,2-.23,2.82-1.15,2.88-3.2,0-.73,0-1.45,0-2.18.19-4.77,3.42-8.09,8.19-8.21,4.07-.1,8.15,0,12.23,0,.92,0,1.25.28,1.3,1.24.28,5.58-2.57,9-8.13,9.66A2.76,2.76,0,0,0,73.9,56c-.06.89,0,1.79,0,2.68a8.07,8.07,0,0,1-8.17,8C63.74,66.8,61.78,66.77,59.83,66.77Z"></path>
        </g>
      </g>
      <path id="el_Krcw4v4xtZ6" d="M53.41,66.78h-1c-.15,0-.21,0-.21-.2A1.37,1.37,0,0,1,53.46,65a.46.46,0,0,0,.47-.53c0-.12,0-.24,0-.36a1.33,1.33,0,0,1,1.34-1.35c.67,0,1.34,0,2,0,.15,0,.21,0,.21.2a1.38,1.38,0,0,1-1.33,1.59.45.45,0,0,0-.45.46c0,.15,0,.29,0,.44a1.32,1.32,0,0,1-1.34,1.32Z"></path>
      <g id="el_C9sNWhJOkxc_Pz9Fl_S3v" data-animator-group="true" data-animator-type="0">
        <g id="el_C9sNWhJOkxc__xDpBAulr" data-animator-group="true" data-animator-type="2"></g>
      </g>
    </g>
    <path id="el_eMULwsCeSuW" d="M250,262H20A12,12,0,0,1,8,250V20A12,12,0,0,1,20,8H250a12,12,0,0,1,12,12V250A12,12,0,0,1,250,262Z"></path>
    <polygon points="62.96 143.73 62.96 157.73 106.72 157.73 106.72 120.98 62.96 143.73" id="el_gYO71e595Md"></polygon>
  </svg>
</picture>